Jan Vanhove :: Blog - Tutorial: Drawing a line chart
…
We want to compare how response accuracy develops block by block in the different experimental conditions. To that end, we need to calculate the proportion of correct responses by each learner in each block and for each task. The dplyr and magrittr packages make doing so easy.

The following lines of code create a new data frame called semproj_perParticipant that was constructed by taking the dataset semproj (first line), grouping it by the variables SubjectID, BiasCondition, Block and Task (second line), and within each ‘cell’ calculating the proportion of entries in ResponseCorrect that read "yes" (third line).

semproj_perParticipant <- semproj |>
  group_by(SubjectID, BiasCondition, Block, Task) |>
  summarise(ProportionCorrect = mean(ResponseCorrect == "yes"),
            .groups = "drop")

Type the name of the new data frame at the prompt. If you see something like this, everything’s fine.

semproj_perParticipant

# A tibble: 840 × 5
   SubjectID                        BiasCondition Block Task   ProportionCorrect
   <fct>                            <fct>         <int> <fct>              <dbl>
 1 0krwma8qskny4r4d1za1gqsp3hp78y4s StrongBias        1 Compr…             0.688
 2 0krwma8qskny4r4d1za1gqsp3hp78y4s StrongBias        1 GJT                0.5  
 3 0krwma8qskny4r4d1za1gqsp3hp78y4s StrongBias        1 Produ…             0    
 4 0krwma8qskny4r4d1za1gqsp3hp78y4s StrongBias        2 Compr…             0.375
 5 0krwma8qskny4r4d1za1gqsp3hp78y4s StrongBias        2 GJT                0.5  
 6 0krwma8qskny4r4d1za1gqsp3hp78y4s StrongBias        2 Produ…             0    
 7 0krwma8qskny4r4d1za1gqsp3hp78y4s StrongBias        3 Compr…             0.312
 8 0krwma8qskny4r4d1za1gqsp3hp78y4s StrongBias        3 GJT                0.5  
 9 0krwma8qskny4r4d1za1gqsp3hp78y4s StrongBias        3 Produ…             0    
10 0krwma8qskny4r4d1za1gqsp3hp78y4s StrongBias        4 Compr…             0.75 
# ℹ 830 more rows

Now that we’ve computed the proportion of correct responses by each participant for each block and task, we can compute the average proportion of correct responses per block and task according to the experimental condition the participants were assigned to. The code works similarly to before: a new data frame called semproj_perCondition is created by taking the semproj_perParticipant data frame we constructed above (1), grouping it by BiasCondition, Block and Task (2) and computing the mean proportion of correct responses.

semproj_perCondition <- semproj_perParticipant |>
  group_by(BiasCondition, Block, Task) |>
  summarise(MeanProportionCorrect = mean(ProportionCorrect),
            .groups = "drop")

The result should look like this—you can see that those in the ‘rule-based input’ learning condition score an average of 69% on the first comprehension block, 59% on the first grammaticality judgement task (GJT) block, and 13% on the first production block.

semproj_perCondition

# A tibble: 36 × 4
   BiasCondition  Block Task          MeanProportionCorrect
   <fct>          <int> <fct>                         <dbl>
 1 RuleBasedInput     1 Comprehension                 0.692
 2 RuleBasedInput     1 GJT                           0.587
 3 RuleBasedInput     1 Production                    0.135
 4 RuleBasedInput     2 Comprehension                 0.846
 5 RuleBasedInput     2 GJT                           0.731
 6 RuleBasedInput     2 Production                    0.510
 7 RuleBasedInput     3 Comprehension                 0.880
 8 RuleBasedInput     3 GJT                           0.808
 9 RuleBasedInput     3 Production                    0.548
10 RuleBasedInput     4 Comprehension                 0.897
# ℹ 26 more rows
…
