…
{% highlight julia %}
@time d = simulate(runs)
{% endhighlight %}



{% highlight text %}
##   0.783903 seconds (4.50 M allocations: 380.651 MiB, 8.40% gc time, 59.95% compilation time)
{% endhighlight %}



{% highlight text %}
## 1000000×2 DataFrame
##      Row │ Successful  Attempts
##          │ Bool        Int64
## ─────────┼──────────────────────
##        1 │      false         2
##        2 │      false         1
##        3 │      false         1
##        4 │      false         1
##        5 │      false         1
##        6 │      false         1
##        7 │      false         1
##        8 │      false         1
##     ⋮    │     ⋮          ⋮
##   999994 │      false         2
##   999995 │      false         1
##   999996 │      false         1
##   999997 │       true         1
##   999998 │      false         1
##   999999 │      false         2
##  1000000 │      false         1
##              999985 rows omitted
…
{% highlight julia %}
@time d2 = simulate(runs)
{% endhighlight %}



{% highlight text %}
##   0.299691 seconds (3.89 M allocations: 348.754 MiB, 9.35% gc time)
{% endhighlight %}



{% highlight text %}
## 1000000×2 DataFrame
##      Row │ Successful  Attempts
##          │ Bool        Int64
## ─────────┼──────────────────────
##        1 │      false         1
##        2 │      false         2
##        3 │      false         1
##        4 │      false         1
##        5 │      false         1
##        6 │      false         1
##        7 │      false         1
##        8 │      false         2
##     ⋮    │     ⋮          ⋮
##   999994 │      false         2
##   999995 │      false         1
##   999996 │      false         2
##   999997 │      false         1
##   999998 │      false         1
##   999999 │      false         1
##  1000000 │      false         1
##              999985 rows omitted
…
