Chapter 7 Week 7: Scatterplots | Quantitative Methodology: Drawing plots
…
# Create new object 'per_part' as follows:
# take 'd', and then...
per_part <- d %>% 
  # group it by Subject, and then...
  group_by(Subject) %>% 
  # compute the sum of Correct within each group
  summarise(number_correct = sum(Correct))

## `summarise()` ungrouping output (override with `.groups` argument)

# Show result
per_part

## # A tibble: 163 x 2
##    Subject number_correct
##      <dbl>          <dbl>
##  1      64             49
##  2      78             39
##  3     134             36
##  4     230             38
##  5     288             21
##  6     326             45
##  7     447             47
##  8     527             24
##  9     545             33
## 10     550             46
## # … with 153 more rows
…
# 3rd attempt: Number of correct translations per participant,
# split up by modality.

per_part2 <- d %>% 
  # group by Subject and Mode
  group_by(Subject, Mode) %>% 
  summarise(number_correct = sum(Correct))

## `summarise()` regrouping output by 'Subject' (override with `.groups` argument)

per_part2

## # A tibble: 326 x 3
## # Groups:   Subject [163]
##    Subject Mode     number_correct
##      <dbl> <chr>             <dbl>
##  1      64 Auditory             24
##  2      64 Visual               25
##  3      78 Auditory             19
##  4      78 Visual               20
##  5     134 Auditory             24
##  6     134 Visual               12
##  7     230 Auditory             12
##  8     230 Visual               26
##  9     288 Auditory             12
## 10     288 Visual                9
## # … with 316 more rows
…
part_info <- part_info %>% 
  distinct()

Now we can add the information from part_info to per_part2:

# Create new object 'per_part3'.
# Take object 'per_part2', and then...
per_part3 <- per_part2 %>% 
  # join it with 'part_info' using 'Subject' as the "zipper"
  full_join(part_info, by = "Subject")

# Show result
per_part3

## # A tibble: 326 x 10
## # Groups:   Subject [163]
##    Subject Mode  number_correct   Age Sex   WST.Right Raven.Right English.Total
##      <dbl> <chr>          <dbl> <dbl> <chr>     <dbl>       <dbl>         <dbl>
##  1      64 Audi…             24    27 fema…        34          28            42
##  2      64 Visu…             25    27 fema…        34          28            42
##  3      78 Audi…             19    47 fema…        33          26            27
##  4      78 Visu…             20    47 fema…        33          26            27
##  5     134 Audi…             24    33 male         32          24            24
##  6     134 Visu…             12    33 male         32          24            24
##  7     230 Audi…             12    84 male         37          20            31
##  8     230 Visu…             26    84 male         37          20            31
##  9     288 Audi…             12    28 male         35          24            39
## 10     288 Visu…              9    28 male         35          24            39
## # … with 316 more rows, and 2 more variables: NrLang <dbl>, DS.Total <dbl>
…
## `summarise()` regrouping output by 'Subject' (override with `.groups` argument)

per_part

## # A tibble: 326 x 10
## # Groups:   Subject [163]
##    Subject Mode  number_correct   Age Sex   WST.Right Raven.Right English.Total
##      <dbl> <chr>          <dbl> <dbl> <chr>     <dbl>       <dbl>         <dbl>
##  1      64 Audi…             23    27 fema…        34          28            42
##  2      64 Visu…             25    27 fema…        34          28            42
##  3      78 Audi…             19    47 fema…        33          26            27
##  4      78 Visu…             20    47 fema…        33          26            27
##  5     134 Audi…             24    33 male         32          24            24
##  6     134 Visu…             12    33 male         32          24            24
##  7     230 Audi…             12    84 male         37          20            31
##  8     230 Visu…             26    84 male         37          20            31
##  9     288 Audi…             12    28 male         35          24            39
## 10     288 Visu…              9    28 male         35          24            39
## # … with 316 more rows, and 2 more variables: NrLang <dbl>, DS.Total <dbl>
…
